{
    "fp16": {
        "enabled": true,
        "loss_scale": 0,
        "loss_scale_window": 1000,
        "initial_scale_power": 11,
        "hysteresis": 2,
        "min_loss_scale": 1
    },
    "zero_allow_untested_optimizer" : true,

	"zero_optimization": {
        "stage": 3,
        "overlap_comm": true,
        "contiguous_gradients": false,
        "stage3_max_live_parameters": 1e9,
        "stage3_max_reuse_distance": 1e9,
        "stage3_prefetch_bucket_size": 0.94e6,
        "stage3_param_persistence_threshold": 1e4,
        "reduce_bucket_size": 1e6,
        "prefetch_bucket_size": 3e6,
        "sub_group_size": 1e14,
        "stage3_gather_fp16_weights_on_model_save": true,
		"find_unused_parameters": true
    },

    "sparse_attention": {
        "mode": "fixed",
        "block": 16,
        "different_layout_per_head": true,
        "num_local_blocks": 4,
        "num_global_blocks": 1,
        "attention": "bidirectional",
        "horizontal_global_attention": false,
        "num_different_global_patterns": 4
    },
    "precale_gradients": true,
    "steps_per_print": 2000,
    "wall_clock_breakdown": false,
    "train_micro_batch_size_per_gpu": 46,
    "gradient_accumulation_steps": 4,
    "gradient_clipping": 1.0,
    "steps_per_print": 2000,
    "wall_clock_breakdown": false
}
